{
  "name": "HCA1",
  "displayName": "HCA 1",
  "description": "Calculo de areas de Alta Consecuencia",
  "category": "",
  "helpUrl": "https://bogesaagavtcv.red.ecopetrol.com.co/server/rest/directories/arcgisoutput/VRC/HCA1_GPServer/VRC_HCA1/HCA1.htm",
  "serverInfo": {
    "currentVersion": 10.91,
    "url": "https://bogesaagavtcv.red.ecopetrol.com.co/server/rest/services/VRC/HCA1/GPServer/",
    "hasResultMapServer": true,
    "resultMapServerName": "VRC/HCA1",
    "supportsUpload": true,
    "maxUploadFileSize": 2000
  },
  "useResultMapServer": true,
  "taskUrl": "https://bogesaagavtcv.red.ecopetrol.com.co/server/rest/services/VRC/HCA1/GPServer/HCA 1",
  "isSynchronous": false,
  "inputParams": [
    {
      "name": "SAP_ID_LINEA",
      "dataType": "GPString",
      "description": "Identificador de linea a ser analizada",
      "defaultValue": null,
      "category": "",
      "label": "SAP_ID_LINEA",
      "visible": true,
      "required": true,
      "tooltip": "SAP_ID_LINEA"
    },
    {
      "name": "Sistema_de_Agua_Comunitarios",
      "dataType": "GPFeatureRecordSetLayer",
      "description": "Shape de sistema de agua comunitarios. Son áreas que contienen agua superficial y no tienen otra adecuada fuente de agua.",
      "defaultValue": {
        "displayFieldName": "",
        "hasZ": true,
        "hasM": true,
        "geometryType": "esriGeometryPolygon",
        "spatialReference": {
          "wkid": 4686,
          "latestWkid": 4686
        },
        "fields": [
          {
            "name": "FID",
            "type": "esriFieldTypeOID",
            "alias": "FID"
          },
          {
            "name": "NAME",
            "type": "esriFieldTypeString",
            "alias": "NAME",
            "length": 50
          },
          {
            "name": "PRIORIZA",
            "type": "esriFieldTypeString",
            "alias": "PRIORIZA",
            "length": 254
          },
          {
            "name": "Shape_Length",
            "type": "esriFieldTypeDouble",
            "alias": "Shape_Length"
          },
          {
            "name": "Shape_Area",
            "type": "esriFieldTypeDouble",
            "alias": "Shape_Area"
          }
        ],
        "features": [],
        "exceededTransferLimit": false
      },
      "category": "",
      "label": "Sistema de Agua Comunitarios",
      "visible": true,
      "required": true,
      "featureSetMode": "file",
      "tooltip": "Sistema de Agua Comunitarios"
    },
    {
      "name": "Distancia_Buffer_Sistema_de_Agua_Comunitarios",
      "dataType": "GPLinearUnit",
      "description": "Distancia de afectación",
      "defaultValue": {
        "distance": 8000,
        "units": "esriMeters"
      },
      "category": "",
      "label": "Distancia Buffer Sistema de Agua Comunitarios",
      "visible": true,
      "required": true,
      "tooltip": "Distancia Buffer Sistema de Agua Comunitarios"
    },
    {
      "name": "Áreas_Protección_Fuente_Agua",
      "dataType": "GPFeatureRecordSetLayer",
      "description": "Shape de áreas protección fuente agua. Son lugares que obtienen el agua de Acuíferos clase I (agua superficial, permeables y altamente vulnerables contaminación) o clase II (lecho roca, moderadamente vulnerables contaminación y con caudal de 50 gal/min.) y no tienen una adecuada fuente agua potable.",
      "defaultValue": {
        "displayFieldName": "",
        "hasZ": true,
        "hasM": true,
        "geometryType": "esriGeometryPolygon",
        "spatialReference": {
          "wkid": 4686,
          "latestWkid": 4686
        },
        "fields": [
          {
            "name": "FID",
            "type": "esriFieldTypeOID",
            "alias": "FID"
          },
          {
            "name": "NAME",
            "type": "esriFieldTypeString",
            "alias": "NAME",
            "length": 50
          },
          {
            "name": "PRIORIZA",
            "type": "esriFieldTypeString",
            "alias": "PRIORIZA",
            "length": 254
          },
          {
            "name": "Shape_Length",
            "type": "esriFieldTypeDouble",
            "alias": "Shape_Length"
          },
          {
            "name": "Shape_Area",
            "type": "esriFieldTypeDouble",
            "alias": "Shape_Area"
          }
        ],
        "features": [],
        "exceededTransferLimit": false
      },
      "category": "",
      "label": "Áreas Protección Fuente Agua",
      "visible": true,
      "required": true,
      "featureSetMode": "file",
      "tooltip": "Áreas Protección Fuente Agua"
    },
    {
      "name": "Distancia_Buffer_Áreas_Protección_Fuente_Agua",
      "dataType": "GPLinearUnit",
      "description": "Distancia de afectación",
      "defaultValue": {
        "distance": 8000,
        "units": "esriMeters"
      },
      "category": "",
      "label": "Distancia Buffer Áreas Protección Fuente Agua",
      "visible": true,
      "required": true,
      "tooltip": "Distancia Buffer Áreas Protección Fuente Agua"
    },
    {
      "name": "Áreas_con_Fuente_Acuífera_Única",
      "dataType": "GPFeatureRecordSetLayer",
      "description": "Shape de áreas con fuente acuífera única. Obtienen agua cavernas naturales.",
      "defaultValue": {
        "displayFieldName": "",
        "hasZ": true,
        "hasM": true,
        "geometryType": "esriGeometryPolygon",
        "spatialReference": {
          "wkid": 4686,
          "latestWkid": 4686
        },
        "fields": [
          {
            "name": "FID",
            "type": "esriFieldTypeOID",
            "alias": "FID"
          },
          {
            "name": "NAME",
            "type": "esriFieldTypeString",
            "alias": "NAME",
            "length": 50
          },
          {
            "name": "PRIORIZA",
            "type": "esriFieldTypeString",
            "alias": "PRIORIZA",
            "length": 254
          },
          {
            "name": "Shape_Length",
            "type": "esriFieldTypeDouble",
            "alias": "Shape_Length"
          },
          {
            "name": "Shape_Area",
            "type": "esriFieldTypeDouble",
            "alias": "Shape_Area"
          }
        ],
        "features": [],
        "exceededTransferLimit": false
      },
      "category": "",
      "label": "Áreas con Fuente Acuífera Única",
      "visible": true,
      "required": true,
      "featureSetMode": "file",
      "tooltip": "Áreas con Fuente Acuífera Única"
    },
    {
      "name": "Distancia_Buffer_Áreas_con_Fuente_Acuífera_Única",
      "dataType": "GPLinearUnit",
      "description": "Distancia de afectación",
      "defaultValue": {
        "distance": 8000,
        "units": "esriMeters"
      },
      "category": "",
      "label": "Distancia Buffer Áreas con Fuente Acuífera Única",
      "visible": true,
      "required": true,
      "tooltip": "Distancia Buffer Áreas con Fuente Acuífera Única"
    },
    {
      "name": "Áreas_con_Especies_en_Peligro_Extinción_o_Colonias_Ecológicas",
      "dataType": "GPFeatureRecordSetLayer",
      "description": "Shape de áreas con especies en peligro de extinción. Son sitios con especies animales o plantas o comunidad ecológica extremamente rara (menos 1.000 individuos o 2.000 plantas por acre) y son vulnerables a la extinción por factores naturales o  artificiales.",
      "defaultValue": {
        "displayFieldName": "",
        "hasZ": true,
        "hasM": true,
        "geometryType": "esriGeometryPolygon",
        "spatialReference": {
          "wkid": 4686,
          "latestWkid": 4686
        },
        "fields": [
          {
            "name": "FID",
            "type": "esriFieldTypeOID",
            "alias": "FID"
          },
          {
            "name": "NAME",
            "type": "esriFieldTypeString",
            "alias": "NAME",
            "length": 50
          },
          {
            "name": "PRIORIZA",
            "type": "esriFieldTypeString",
            "alias": "PRIORIZA",
            "length": 254
          },
          {
            "name": "Shape_Length",
            "type": "esriFieldTypeDouble",
            "alias": "Shape_Length"
          },
          {
            "name": "Shape_Area",
            "type": "esriFieldTypeDouble",
            "alias": "Shape_Area"
          }
        ],
        "features": [],
        "exceededTransferLimit": false
      },
      "category": "",
      "label": "Áreas con Especies en Peligro Extinción o Colonias Ecológicas",
      "visible": true,
      "required": true,
      "featureSetMode": "file",
      "tooltip": "Áreas con Especies en Peligro Extinción o Colonias Ecológicas"
    },
    {
      "name": "Distancia_Buffer_Áreas_con_Especies_en_Peligro_Extinción_o_Colonias_Ecológicas",
      "dataType": "GPLinearUnit",
      "description": "Distancia de afectación",
      "defaultValue": {
        "distance": 8000,
        "units": "esriMeters"
      },
      "category": "",
      "label": "Distancia Buffer Áreas con Especies en Peligro Extinción o Colonias Ecológicas",
      "visible": true,
      "required": true,
      "tooltip": "Distancia Buffer Áreas con Especies en Peligro Extinción o Colonias Ecológicas"
    },
    {
      "name": "Áreas_Múltiples_Especies",
      "dataType": "GPFeatureRecordSetLayer",
      "description": "Shape de áreas de múltiples especies. Son lugares donde hay concentración de tres o más especies diferentes en peligro extinción o colonias ecológicas, especies amenazadas, especies mamíferas diezmadas, o aves acuíferas migratorias.",
      "defaultValue": {
        "displayFieldName": "",
        "hasZ": true,
        "hasM": true,
        "geometryType": "esriGeometryPolygon",
        "spatialReference": {
          "wkid": 4686,
          "latestWkid": 4686
        },
        "fields": [
          {
            "name": "FID",
            "type": "esriFieldTypeOID",
            "alias": "FID"
          },
          {
            "name": "NAME",
            "type": "esriFieldTypeString",
            "alias": "NAME",
            "length": 50
          },
          {
            "name": "PRIORIZA",
            "type": "esriFieldTypeString",
            "alias": "PRIORIZA",
            "length": 254
          },
          {
            "name": "Shape_Length",
            "type": "esriFieldTypeDouble",
            "alias": "Shape_Length"
          },
          {
            "name": "Shape_Area",
            "type": "esriFieldTypeDouble",
            "alias": "Shape_Area"
          }
        ],
        "features": [],
        "exceededTransferLimit": false
      },
      "category": "",
      "label": "Áreas Múltiples Especies",
      "visible": true,
      "required": true,
      "featureSetMode": "file",
      "tooltip": "Áreas Múltiples Especies"
    },
    {
      "name": "Distancia_Buffer_Áreas_Múltiples_Especies",
      "dataType": "GPLinearUnit",
      "description": "Distancia de afectación",
      "defaultValue": {
        "distance": 8000,
        "units": "esriMeters"
      },
      "category": "",
      "label": "Distancia Buffer Áreas Múltiples Especies",
      "visible": true,
      "required": true,
      "tooltip": "Distancia Buffer Áreas Múltiples Especies"
    },
    {
      "name": "Áreas_Concentración_Aves_Acuíferas_Migratorias",
      "dataType": "GPFeatureRecordSetLayer",
      "description": "Shape de áreas de concentración de aves acuíferas migratorias. Son regiones de conservación que contienen regularmente 20.000 aves acuíferas, o un número sustancial de individuos de un grupo aves acuíferas, o sitios que mantienen 1 % de la población de una especie o subespecie.",
      "defaultValue": {
        "displayFieldName": "",
        "hasZ": true,
        "hasM": true,
        "geometryType": "esriGeometryPolygon",
        "spatialReference": {
          "wkid": 4686,
          "latestWkid": 4686
        },
        "fields": [
          {
            "name": "FID",
            "type": "esriFieldTypeOID",
            "alias": "FID"
          },
          {
            "name": "NAME",
            "type": "esriFieldTypeString",
            "alias": "NAME",
            "length": 50
          },
          {
            "name": "PRIORIZA",
            "type": "esriFieldTypeString",
            "alias": "PRIORIZA",
            "length": 254
          },
          {
            "name": "Shape_Length",
            "type": "esriFieldTypeDouble",
            "alias": "Shape_Length"
          },
          {
            "name": "Shape_Area",
            "type": "esriFieldTypeDouble",
            "alias": "Shape_Area"
          }
        ],
        "features": [],
        "exceededTransferLimit": false
      },
      "category": "",
      "label": "Áreas Concentración Aves Acuíferas Migratorias",
      "visible": true,
      "required": true,
      "featureSetMode": "file",
      "tooltip": "Áreas Concentración Aves Acuíferas Migratorias"
    },
    {
      "name": "Distancia_Buffer_Áreas_Concentración_Aves_Acuíferas_Migratorias",
      "dataType": "GPLinearUnit",
      "description": "Distancia de afectación",
      "defaultValue": {
        "distance": 8000,
        "units": "esriMeters"
      },
      "category": "",
      "label": "Distancia Buffer Áreas Concentración Aves Acuíferas Migratorias",
      "visible": true,
      "required": true,
      "tooltip": "Distancia Buffer Áreas Concentración Aves Acuíferas Migratorias"
    },
    {
      "name": "Area_Poblada_Clase_1",
      "dataType": "GPFeatureRecordSetLayer",
      "description": "Shape de área poblada clase 1. Es el área que está definida por un perímetro urbano, cuyos límites se establecen por Acuerdos del Consejo Municipal. Corresponde al lugar en donde se ubica la sede administrativa de un municipio.",
      "defaultValue": {
        "displayFieldName": "",
        "hasZ": true,
        "hasM": true,
        "geometryType": "esriGeometryPolygon",
        "spatialReference": {
          "wkid": 4686,
          "latestWkid": 4686
        },
        "fields": [
          {
            "name": "FID",
            "type": "esriFieldTypeOID",
            "alias": "FID"
          },
          {
            "name": "NAME",
            "type": "esriFieldTypeString",
            "alias": "NAME",
            "length": 50
          },
          {
            "name": "PRIORIZA",
            "type": "esriFieldTypeString",
            "alias": "PRIORIZA",
            "length": 254
          },
          {
            "name": "Shape_Length",
            "type": "esriFieldTypeDouble",
            "alias": "Shape_Length"
          },
          {
            "name": "Shape_Area",
            "type": "esriFieldTypeDouble",
            "alias": "Shape_Area"
          }
        ],
        "features": [],
        "exceededTransferLimit": false
      },
      "category": "",
      "label": "Area Poblada Clase 1",
      "visible": true,
      "required": true,
      "featureSetMode": "file",
      "tooltip": "Area Poblada Clase 1"
    },
    {
      "name": "Area_Poblada_Clase_2",
      "dataType": "GPFeatureRecordSetLayer",
      "description": "Shape de área poblada clase 2. Es un área con características urbanas, ubicada en el espacio rural del municipio, conformado por 20 o más viviendas contiguas. Este concepto para fines censales agrupa: caseríos, inspecciones de Policía y Corregimientos.",
      "defaultValue": {
        "displayFieldName": "",
        "hasZ": true,
        "hasM": true,
        "geometryType": "esriGeometryPolygon",
        "spatialReference": {
          "wkid": 4686,
          "latestWkid": 4686
        },
        "fields": [
          {
            "name": "FID",
            "type": "esriFieldTypeOID",
            "alias": "FID"
          },
          {
            "name": "NAME",
            "type": "esriFieldTypeString",
            "alias": "NAME",
            "length": 50
          },
          {
            "name": "PRIORIZA",
            "type": "esriFieldTypeString",
            "alias": "PRIORIZA",
            "length": 254
          },
          {
            "name": "Shape_Length",
            "type": "esriFieldTypeDouble",
            "alias": "Shape_Length"
          },
          {
            "name": "Shape_Area",
            "type": "esriFieldTypeDouble",
            "alias": "Shape_Area"
          }
        ],
        "features": [],
        "exceededTransferLimit": false
      },
      "category": "",
      "label": "Area Poblada Clase 2",
      "visible": true,
      "required": true,
      "featureSetMode": "file",
      "tooltip": "Area Poblada Clase 2"
    },
    {
      "name": "Parques_de_Reserva_Natural",
      "dataType": "GPFeatureRecordSetLayer",
      "description": "Parques de Reserva Natural.",
      "defaultValue": {
        "displayFieldName": "",
        "hasZ": true,
        "hasM": true,
        "geometryType": "esriGeometryPolygon",
        "spatialReference": {
          "wkid": 4686,
          "latestWkid": 4686
        },
        "fields": [
          {
            "name": "FID",
            "type": "esriFieldTypeOID",
            "alias": "FID"
          },
          {
            "name": "NAME",
            "type": "esriFieldTypeString",
            "alias": "NAME",
            "length": 50
          },
          {
            "name": "PRIORIZA",
            "type": "esriFieldTypeString",
            "alias": "PRIORIZA",
            "length": 254
          },
          {
            "name": "Shape_Length",
            "type": "esriFieldTypeDouble",
            "alias": "Shape_Length"
          },
          {
            "name": "Shape_Area",
            "type": "esriFieldTypeDouble",
            "alias": "Shape_Area"
          }
        ],
        "features": [],
        "exceededTransferLimit": false
      },
      "category": "",
      "label": "Parques de Reserva Natural",
      "visible": true,
      "required": true,
      "featureSetMode": "file",
      "tooltip": "Parques de Reserva Natural"
    },
    {
      "name": "Distancia_Buffer_Parques_de_Reserva_Natural",
      "dataType": "GPLinearUnit",
      "description": "Distancia de afectación",
      "defaultValue": {
        "distance": 8000,
        "units": "esriMeters"
      },
      "category": "",
      "label": "Distancia Buffer Parques de Reserva Natural",
      "visible": true,
      "required": true,
      "tooltip": "Distancia Buffer Parques de Reserva Natural"
    },
    {
      "name": "Area_Poblada_Clase_3",
      "dataType": "GPFeatureRecordSetLayer",
      "description": "Shape de área poblada clase 3. Son áreas rurales se caracterizan por la disposición dispersa de viviendas y explotaciones agropecuarias existentes en ellas. No cuentan con un trazado o nomenclatura de calles, carreteras, avenidas, etc. Tampoco disponen, por lo general, de servicios públicos y otro tipo de facilidades propias de las áreas urbanas.",
      "defaultValue": {
        "displayFieldName": "",
        "hasZ": true,
        "hasM": true,
        "geometryType": "esriGeometryPolygon",
        "spatialReference": {
          "wkid": 4686,
          "latestWkid": 4686
        },
        "fields": [
          {
            "name": "FID",
            "type": "esriFieldTypeOID",
            "alias": "FID"
          },
          {
            "name": "NAME",
            "type": "esriFieldTypeString",
            "alias": "NAME",
            "length": 50
          },
          {
            "name": "PRIORIZA",
            "type": "esriFieldTypeString",
            "alias": "PRIORIZA",
            "length": 254
          },
          {
            "name": "Shape_Length",
            "type": "esriFieldTypeDouble",
            "alias": "Shape_Length"
          },
          {
            "name": "Shape_Area",
            "type": "esriFieldTypeDouble",
            "alias": "Shape_Area"
          }
        ],
        "features": [],
        "exceededTransferLimit": false
      },
      "category": "",
      "label": "Area Poblada Clase 3",
      "visible": true,
      "required": true,
      "featureSetMode": "file",
      "tooltip": "Area Poblada Clase 3"
    },
    {
      "name": "Areas_Geoestadisticas",
      "dataType": "GPFeatureRecordSetLayer",
      "description": "Shape de áreas geoestadísticas. Son sectores geográficos definidos con fines estadísticos, los cuales se encuentran delimitados principalmente por accidentes naturales identificables en terreno, conocida tradicionalmente como sectorización censal DANE.",
      "defaultValue": {
        "displayFieldName": "",
        "hasZ": true,
        "hasM": true,
        "geometryType": "esriGeometryPolygon",
        "spatialReference": {
          "wkid": 4686,
          "latestWkid": 4686
        },
        "fields": [
          {
            "name": "FID",
            "type": "esriFieldTypeOID",
            "alias": "FID"
          },
          {
            "name": "NAME",
            "type": "esriFieldTypeString",
            "alias": "NAME",
            "length": 50
          },
          {
            "name": "PRIORIZA",
            "type": "esriFieldTypeString",
            "alias": "PRIORIZA",
            "length": 254
          },
          {
            "name": "Shape_Length",
            "type": "esriFieldTypeDouble",
            "alias": "Shape_Length"
          },
          {
            "name": "Shape_Area",
            "type": "esriFieldTypeDouble",
            "alias": "Shape_Area"
          }
        ],
        "features": [],
        "exceededTransferLimit": false
      },
      "category": "",
      "label": "Areas Geoestadisticas",
      "visible": true,
      "required": true,
      "featureSetMode": "file",
      "tooltip": "Areas Geoestadisticas"
    },
    {
      "name": "Vias_Acuaticas_Comercialmente_Navegables",
      "dataType": "GPFeatureRecordSetLayer",
      "description": "Shape de vías acuáticas comercialmente navegables. Son vías fluviales donde existe una sustancial probabilidad de navegación comercial.  Se consideran como áreas de alta consecuencia debido a que la ocurrencia de un derrame sobre un canal comercialmente navegable generaría un gran impacto sobre la estabilidad de la región  teniendo en cuenta su importancia económica y de defensa de la zona.",
      "defaultValue": {
        "displayFieldName": "",
        "hasZ": true,
        "hasM": true,
        "geometryType": "esriGeometryPolygon",
        "spatialReference": {
          "wkid": 4686,
          "latestWkid": 4686
        },
        "fields": [
          {
            "name": "FID",
            "type": "esriFieldTypeOID",
            "alias": "FID"
          },
          {
            "name": "NAME",
            "type": "esriFieldTypeString",
            "alias": "NAME",
            "length": 50
          },
          {
            "name": "PRIORIZA",
            "type": "esriFieldTypeString",
            "alias": "PRIORIZA",
            "length": 254
          },
          {
            "name": "Shape_Length",
            "type": "esriFieldTypeDouble",
            "alias": "Shape_Length"
          },
          {
            "name": "Shape_Area",
            "type": "esriFieldTypeDouble",
            "alias": "Shape_Area"
          }
        ],
        "features": [],
        "exceededTransferLimit": false
      },
      "category": "",
      "label": "Vias Acuaticas Comercialmente Navegables",
      "visible": true,
      "required": true,
      "featureSetMode": "file",
      "tooltip": "Vias Acuaticas Comercialmente Navegables"
    }
  ],
  "outputParams": [
    {
      "name": "VRC/HCA1",
      "label": "VRC/HCA1",
      "tooltip": "VRC/HCA1",
      "dataType": "MapServiceLayer",
      "layerNames": [],
      "visible": true,
      "required": "",
      "defaultValue": null,
      "ignore": false,
      "layerInvisible": false
    }
  ],
  "shareResults": false,
  "layerOrder": [
    "Sistema_de_Agua_Comunitarios",
    "Áreas_Protección_Fuente_Agua",
    "Áreas_con_Fuente_Acuífera_Única",
    "Áreas_con_Especies_en_Peligro_Extinción_o_Colonias_Ecológicas",
    "Áreas_Múltiples_Especies",
    "Áreas_Concentración_Aves_Acuíferas_Migratorias",
    "Area_Poblada_Clase_1",
    "Area_Poblada_Clase_2",
    "Parques_de_Reserva_Natural",
    "Area_Poblada_Clase_3",
    "Areas_Geoestadisticas",
    "Vias_Acuaticas_Comercialmente_Navegables"
  ],
  "showExportButton": false
}
